<?xml version="1.0" encoding="utf-8"?>
<COLLADA xmlns="http://www.collada.org/2005/11/COLLADASchema" version="1.4.1">
  <asset>
    <contributor>
      <author>Blender User</author>
      <authoring_tool>Blender 2.78.0 commit date:2016-09-26, commit time:12:42, hash:4bb1e22</authoring_tool>
    </contributor>
    <created>2016-10-14T16:44:28</created>
    <modified>2016-10-14T16:44:28</modified>
    <unit name="meter" meter="1"/>
    <up_axis>Z_UP</up_axis>
  </asset>
  <library_images/>
  <library_geometries>
    <geometry id="Cone_001-mesh" name="Cone.001">
      <mesh>
        <source id="Cone_001-mesh-positions">
          <float_array id="Cone_001-mesh-positions-array" count="99">1 2.158487 -1.19209e-7 0 2.158486 0.9999999 -0.9999999 2.158487 -1.19209e-7 1.40469e-7 4.158487 8.34465e-7 1.40469e-7 2.158487 -1 -0.9893463 2.169141 0 -0.9893458 1.169141 1 -0.9893463 0.1691409 0 -2.989346 1.169141 9.53674e-7 -0.9893468 1.169141 -1 0 2.169141 -0.9893462 -1 1.169141 -0.9893457 1.32325e-7 0.1691408 -0.9893462 -6.0678e-7 1.169141 -2.989346 1 1.169141 -0.9893464 0.9893463 2.169141 -1.19209e-7 0.9893463 1.169141 -1 0.9893463 0.1691409 0 2.989346 1.169141 -1.19209e-7 0.9893463 1.169141 0.9999998 0 2.169141 0.9893464 1 1.169141 0.9893464 0 0.1691409 0.9893464 0 1.169141 2.989346 -1 1.169141 0.9893464 -1.199781 -0.03064024 1.199781 -1.199781 2.368922 1.199781 -1.199781 -0.03064024 -1.199781 -1.199781 2.368922 -1.199781 1.199781 -0.03064024 1.199781 1.199781 2.368922 1.199781 1.199781 -0.03064024 -1.199781 1.199781 2.368922 -1.199781</float_array>
          <technique_common>
            <accessor source="#Cone_001-mesh-positions-array" count="33" stride="3">
              <param name="X" type="float"/>
              <param name="Y" type="float"/>
              <param name="Z" type="float"/>
            </accessor>
          </technique_common>
        </source>
        <source id="Cone_001-mesh-normals">
          <float_array id="Cone_001-mesh-normals-array" count="99">0.6666666 0.333333 0.6666669 -0.6666667 0.333333 0.6666669 -0.6666667 0.3333337 -0.6666665 0.6666667 0.3333337 -0.6666665 0 -1 -4.76837e-7 -0.333333 0.6666666 0.666667 -0.333333 -0.6666667 0.6666668 -0.3333336 -0.6666667 -0.6666665 -0.3333337 0.6666667 -0.6666665 1 0 -4.47035e-7 -0.6666668 0.6666667 -0.3333331 -0.6666668 -0.6666668 -0.3333331 0.6666666 -0.6666667 -0.3333336 0.6666665 0.6666667 -0.3333337 3.57628e-7 0 1 0.3333333 0.6666667 -0.6666667 0.3333333 -0.6666668 -0.6666666 0.3333333 -0.6666667 0.6666668 0.3333333 0.6666667 0.6666668 -1 0 0 0.6666666 0.6666668 0.3333333 0.6666667 -0.6666668 0.3333334 -0.6666667 -0.6666667 0.3333334 -0.6666666 0.6666668 0.3333333 0 0 -1 -1 0 0 1 0 0 0 0 1 0 -1 0 0 1 0 1 0 -5.06639e-7 3.57628e-7 0 1 -1 0 0</float_array>
          <technique_common>
            <accessor source="#Cone_001-mesh-normals-array" count="33" stride="3">
              <param name="X" type="float"/>
              <param name="Y" type="float"/>
              <param name="Z" type="float"/>
            </accessor>
          </technique_common>
        </source>
        <vertices id="Cone_001-mesh-vertices">
          <input semantic="POSITION" source="#Cone_001-mesh-positions"/>
        </vertices>
        <polylist count="42">
          <input semantic="VERTEX" source="#Cone_001-mesh-vertices" offset="0"/>
          <input semantic="NORMAL" source="#Cone_001-mesh-normals" offset="1"/>
          <vcount>3 3 3 3 3 3 3 3 3 3 3 3 3 3 3 3 3 3 3 3 3 3 3 3 3 3 3 3 3 3 3 3 3 3 3 3 3 3 3 3 3 3 </vcount>
          <p>0 0 3 0 1 0 1 1 3 1 2 1 2 2 3 2 4 2 4 3 3 3 0 3 1 4 4 4 0 4 5 5 8 5 6 5 6 6 8 6 7 6 7 7 8 7 9 7 9 8 8 8 5 8 5 9 7 9 9 9 10 10 13 10 11 10 11 11 13 11 12 11 12 12 13 12 14 12 14 13 13 13 10 13 11 14 14 14 10 14 15 15 18 15 16 15 16 16 18 16 17 16 17 17 18 17 19 17 19 18 18 18 15 18 15 19 17 19 19 19 20 20 23 20 21 20 21 21 23 21 22 21 22 22 23 22 24 22 24 23 23 23 20 23 20 24 22 24 24 24 26 25 27 25 25 25 28 24 31 24 27 24 32 26 29 26 31 26 30 27 25 27 29 27 31 28 25 28 27 28 28 29 30 29 32 29 1 4 2 4 4 4 5 30 6 30 7 30 11 31 12 31 14 31 15 32 16 32 17 32 20 24 21 24 22 24 26 25 28 25 27 25 28 24 32 24 31 24 32 26 30 26 29 26 30 27 26 27 25 27 31 28 29 28 25 28 28 29 26 29 30 29</p>
        </polylist>
      </mesh>
    </geometry>
  </library_geometries>
  <library_controllers/>
  <library_visual_scenes>
    <visual_scene id="Scene" name="Scene">
      <node id="Cone" name="Cone" type="NODE">
        <matrix sid="transform">0.2121623 0 0 0 0 -9.27391e-9 -0.2121623 2.98023e-8 0 0.2121623 -9.27391e-9 0 0 0 0 1</matrix>
        <instance_geometry url="#Cone_001-mesh" name="Cone"/>
      </node>
    </visual_scene>
  </library_visual_scenes>
  <scene>
    <instance_visual_scene url="#Scene"/>
  </scene>
</COLLADA>