%YAML 1.1
%TAG !u! tag:unity3d.com,2011:
--- !u!1 &2572378659264995277
GameObject:
  m_ObjectHideFlags: 0
  m_CorrespondingSourceObject: {fileID: 0}
  m_PrefabInstance: {fileID: 0}
  m_PrefabAsset: {fileID: 0}
  serializedVersion: 6
  m_Component:
  - component: {fileID: 3505398861817165652}
  - component: {fileID: 8560101814857451868}
  m_Layer: 31
  m_Name: BackGroundTileMap
  m_TagString: Untagged
  m_Icon: {fileID: 0}
  m_NavMeshLayer: 0
  m_StaticEditorFlags: 0
  m_IsActive: 1
--- !u!4 &3505398861817165652
Transform:
  m_ObjectHideFlags: 0
  m_CorrespondingSourceObject: {fileID: 0}
  m_PrefabInstance: {fileID: 0}
  m_PrefabAsset: {fileID: 0}
  m_GameObject: {fileID: 2572378659264995277}
  m_LocalRotation: {x: 0, y: 0, z: 0, w: 1}
  m_LocalPosition: {x: 0, y: 0, z: 0}
  m_LocalScale: {x: 1, y: 1, z: 1}
  m_Children:
  - {fileID: 7188507253027670991}
  m_Father: {fileID: 0}
  m_RootOrder: 0
  m_LocalEulerAnglesHint: {x: 0, y: 0, z: 0}
--- !u!156049354 &8560101814857451868
Grid:
  m_ObjectHideFlags: 0
  m_CorrespondingSourceObject: {fileID: 0}
  m_PrefabInstance: {fileID: 0}
  m_PrefabAsset: {fileID: 0}
  m_GameObject: {fileID: 2572378659264995277}
  m_Enabled: 1
  m_CellSize: {x: 1, y: 1, z: 0}
  m_CellGap: {x: 0, y: 0, z: 0}
  m_CellLayout: 0
  m_CellSwizzle: 0
--- !u!1 &6202773559448346929
GameObject:
  m_ObjectHideFlags: 0
  m_CorrespondingSourceObject: {fileID: 0}
  m_PrefabInstance: {fileID: 0}
  m_PrefabAsset: {fileID: 0}
  serializedVersion: 6
  m_Component:
  - component: {fileID: 7188507253027670991}
  - component: {fileID: 5873480149949610811}
  - component: {fileID: 4292827087441726771}
  m_Layer: 31
  m_Name: Layer1
  m_TagString: Untagged
  m_Icon: {fileID: 0}
  m_NavMeshLayer: 0
  m_StaticEditorFlags: 0
  m_IsActive: 1
--- !u!4 &7188507253027670991
Transform:
  m_ObjectHideFlags: 0
  m_CorrespondingSourceObject: {fileID: 0}
  m_PrefabInstance: {fileID: 0}
  m_PrefabAsset: {fileID: 0}
  m_GameObject: {fileID: 6202773559448346929}
  m_LocalRotation: {x: -0, y: -0, z: -0, w: 1}
  m_LocalPosition: {x: 0, y: 0, z: 0}
  m_LocalScale: {x: 1, y: 1, z: 1}
  m_Children: []
  m_Father: {fileID: 3505398861817165652}
  m_RootOrder: 0
  m_LocalEulerAnglesHint: {x: 0, y: 0, z: 0}
--- !u!1839735485 &5873480149949610811
Tilemap:
  m_ObjectHideFlags: 0
  m_CorrespondingSourceObject: {fileID: 0}
  m_PrefabInstance: {fileID: 0}
  m_PrefabAsset: {fileID: 0}
  m_GameObject: {fileID: 6202773559448346929}
  m_Enabled: 1
  m_Tiles:
  - first: {x: -10, y: -10, z: 0}
    second:
      serializedVersion: 2
      m_TileIndex: 21
      m_TileSpriteIndex: 20
      m_TileMatrixIndex: 0
      m_TileColorIndex: 56
      m_TileObjectToInstantiateIndex: 65535
      m_AllTileFlags: 1073741825
  - first: {x: -9, y: -10, z: 0}
    second:
      serializedVersion: 2
      m_TileIndex: 20
      m_TileSpriteIndex: 19
      m_TileMatrixIndex: 0
      m_TileColorIndex: 56
      m_TileObjectToInstantiateIndex: 65535
      m_AllTileFlags: 1073741825
  - first: {x: -10, y: -9, z: 0}
    second:
      serializedVersion: 2
      m_TileIndex: 28
      m_TileSpriteIndex: 27
      m_TileMatrixIndex: 0
      m_TileColorIndex: 56
      m_TileObjectToInstantiateIndex: 65535
      m_AllTileFlags: 1073741825
  - first: {x: -9, y: -9, z: 0}
    second:
      serializedVersion: 2
      m_TileIndex: 27
      m_TileSpriteIndex: 26
      m_TileMatrixIndex: 0
      m_TileColorIndex: 56
      m_TileObjectToInstantiateIndex: 65535
      m_AllTileFlags: 1073741825
  - first: {x: -8, y: -9, z: 0}
    second:
      serializedVersion: 2
      m_TileIndex: 26
      m_TileSpriteIndex: 25
      m_TileMatrixIndex: 0
      m_TileColorIndex: 56
      m_TileObjectToInstantiateIndex: 65535
      m_AllTileFlags: 1073741825
  - first: {x: -7, y: -9, z: 0}
    second:
      serializedVersion: 2
      m_TileIndex: 25
      m_TileSpriteIndex: 24
      m_TileMatrixIndex: 0
      m_TileColorIndex: 56
      m_TileObjectToInstantiateIndex: 65535
      m_AllTileFlags: 1073741825
  - first: {x: -6, y: -9, z: 0}
    second:
      serializedVersion: 2
      m_TileIndex: 24
      m_TileSpriteIndex: 23
      m_TileMatrixIndex: 0
      m_TileColorIndex: 56
      m_TileObjectToInstantiateIndex: 65535
      m_AllTileFlags: 1073741825
  - first: {x: -5, y: -9, z: 0}
    second:
      serializedVersion: 2
      m_TileIndex: 23
      m_TileSpriteIndex: 22
      m_TileMatrixIndex: 0
      m_TileColorIndex: 56
      m_TileObjectToInstantiateIndex: 65535
      m_AllTileFlags: 1073741825
  - first: {x: -4, y: -9, z: 0}
    second:
      serializedVersion: 2
      m_TileIndex: 22
      m_TileSpriteIndex: 21
      m_TileMatrixIndex: 0
      m_TileColorIndex: 56
      m_TileObjectToInstantiateIndex: 65535
      m_AllTileFlags: 1073741825
  - first: {x: -10, y: -8, z: 0}
    second:
      serializedVersion: 2
      m_TileIndex: 35
      m_TileSpriteIndex: 34
      m_TileMatrixIndex: 0
      m_TileColorIndex: 56
      m_TileObjectToInstantiateIndex: 65535
      m_AllTileFlags: 1073741825
  - first: {x: -9, y: -8, z: 0}
    second:
      serializedVersion: 2
      m_TileIndex: 34
      m_TileSpriteIndex: 33
      m_TileMatrixIndex: 0
      m_TileColorIndex: 56
      m_TileObjectToInstantiateIndex: 65535
      m_AllTileFlags: 1073741825
  - first: {x: -8, y: -8, z: 0}
    second:
      serializedVersion: 2
      m_TileIndex: 33
      m_TileSpriteIndex: 32
      m_TileMatrixIndex: 0
      m_TileColorIndex: 56
      m_TileObjectToInstantiateIndex: 65535
      m_AllTileFlags: 1073741825
  - first: {x: -7, y: -8, z: 0}
    second:
      serializedVersion: 2
      m_TileIndex: 32
      m_TileSpriteIndex: 31
      m_TileMatrixIndex: 0
      m_TileColorIndex: 56
      m_TileObjectToInstantiateIndex: 65535
      m_AllTileFlags: 1073741825
  - first: {x: -6, y: -8, z: 0}
    second:
      serializedVersion: 2
      m_TileIndex: 31
      m_TileSpriteIndex: 30
      m_TileMatrixIndex: 0
      m_TileColorIndex: 56
      m_TileObjectToInstantiateIndex: 65535
      m_AllTileFlags: 1073741825
  - first: {x: -5, y: -8, z: 0}
    second:
      serializedVersion: 2
      m_TileIndex: 30
      m_TileSpriteIndex: 29
      m_TileMatrixIndex: 0
      m_TileColorIndex: 56
      m_TileObjectToInstantiateIndex: 65535
      m_AllTileFlags: 1073741825
  - first: {x: -4, y: -8, z: 0}
    second:
      serializedVersion: 2
      m_TileIndex: 29
      m_TileSpriteIndex: 28
      m_TileMatrixIndex: 0
      m_TileColorIndex: 56
      m_TileObjectToInstantiateIndex: 65535
      m_AllTileFlags: 1073741825
  - first: {x: -10, y: -7, z: 0}
    second:
      serializedVersion: 2
      m_TileIndex: 42
      m_TileSpriteIndex: 41
      m_TileMatrixIndex: 0
      m_TileColorIndex: 56
      m_TileObjectToInstantiateIndex: 65535
      m_AllTileFlags: 1073741825
  - first: {x: -9, y: -7, z: 0}
    second:
      serializedVersion: 2
      m_TileIndex: 41
      m_TileSpriteIndex: 40
      m_TileMatrixIndex: 0
      m_TileColorIndex: 56
      m_TileObjectToInstantiateIndex: 65535
      m_AllTileFlags: 1073741825
  - first: {x: -8, y: -7, z: 0}
    second:
      serializedVersion: 2
      m_TileIndex: 40
      m_TileSpriteIndex: 39
      m_TileMatrixIndex: 0
      m_TileColorIndex: 56
      m_TileObjectToInstantiateIndex: 65535
      m_AllTileFlags: 1073741825
  - first: {x: -7, y: -7, z: 0}
    second:
      serializedVersion: 2
      m_TileIndex: 39
      m_TileSpriteIndex: 38
      m_TileMatrixIndex: 0
      m_TileColorIndex: 56
      m_TileObjectToInstantiateIndex: 65535
      m_AllTileFlags: 1073741825
  - first: {x: -6, y: -7, z: 0}
    second:
      serializedVersion: 2
      m_TileIndex: 38
      m_TileSpriteIndex: 37
      m_TileMatrixIndex: 0
      m_TileColorIndex: 56
      m_TileObjectToInstantiateIndex: 65535
      m_AllTileFlags: 1073741825
  - first: {x: -5, y: -7, z: 0}
    second:
      serializedVersion: 2
      m_TileIndex: 37
      m_TileSpriteIndex: 36
      m_TileMatrixIndex: 0
      m_TileColorIndex: 56
      m_TileObjectToInstantiateIndex: 65535
      m_AllTileFlags: 1073741825
  - first: {x: -4, y: -7, z: 0}
    second:
      serializedVersion: 2
      m_TileIndex: 36
      m_TileSpriteIndex: 35
      m_TileMatrixIndex: 0
      m_TileColorIndex: 56
      m_TileObjectToInstantiateIndex: 65535
      m_AllTileFlags: 1073741825
  - first: {x: -10, y: -6, z: 0}
    second:
      serializedVersion: 2
      m_TileIndex: 49
      m_TileSpriteIndex: 48
      m_TileMatrixIndex: 0
      m_TileColorIndex: 56
      m_TileObjectToInstantiateIndex: 65535
      m_AllTileFlags: 1073741825
  - first: {x: -9, y: -6, z: 0}
    second:
      serializedVersion: 2
      m_TileIndex: 48
      m_TileSpriteIndex: 47
      m_TileMatrixIndex: 0
      m_TileColorIndex: 56
      m_TileObjectToInstantiateIndex: 65535
      m_AllTileFlags: 1073741825
  - first: {x: -8, y: -6, z: 0}
    second:
      serializedVersion: 2
      m_TileIndex: 47
      m_TileSpriteIndex: 46
      m_TileMatrixIndex: 0
      m_TileColorIndex: 56
      m_TileObjectToInstantiateIndex: 65535
      m_AllTileFlags: 1073741825
  - first: {x: -7, y: -6, z: 0}
    second:
      serializedVersion: 2
      m_TileIndex: 46
      m_TileSpriteIndex: 45
      m_TileMatrixIndex: 0
      m_TileColorIndex: 56
      m_TileObjectToInstantiateIndex: 65535
      m_AllTileFlags: 1073741825
  - first: {x: -6, y: -6, z: 0}
    second:
      serializedVersion: 2
      m_TileIndex: 45
      m_TileSpriteIndex: 44
      m_TileMatrixIndex: 0
      m_TileColorIndex: 56
      m_TileObjectToInstantiateIndex: 65535
      m_AllTileFlags: 1073741825
  - first: {x: -5, y: -6, z: 0}
    second:
      serializedVersion: 2
      m_TileIndex: 44
      m_TileSpriteIndex: 43
      m_TileMatrixIndex: 0
      m_TileColorIndex: 56
      m_TileObjectToInstantiateIndex: 65535
      m_AllTileFlags: 1073741825
  - first: {x: -4, y: -6, z: 0}
    second:
      serializedVersion: 2
      m_TileIndex: 43
      m_TileSpriteIndex: 42
      m_TileMatrixIndex: 0
      m_TileColorIndex: 56
      m_TileObjectToInstantiateIndex: 65535
      m_AllTileFlags: 1073741825
  - first: {x: -10, y: -5, z: 0}
    second:
      serializedVersion: 2
      m_TileIndex: 56
      m_TileSpriteIndex: 55
      m_TileMatrixIndex: 0
      m_TileColorIndex: 56
      m_TileObjectToInstantiateIndex: 65535
      m_AllTileFlags: 1073741825
  - first: {x: -9, y: -5, z: 0}
    second:
      serializedVersion: 2
      m_TileIndex: 55
      m_TileSpriteIndex: 54
      m_TileMatrixIndex: 0
      m_TileColorIndex: 56
      m_TileObjectToInstantiateIndex: 65535
      m_AllTileFlags: 1073741825
  - first: {x: -8, y: -5, z: 0}
    second:
      serializedVersion: 2
      m_TileIndex: 54
      m_TileSpriteIndex: 53
      m_TileMatrixIndex: 0
      m_TileColorIndex: 56
      m_TileObjectToInstantiateIndex: 65535
      m_AllTileFlags: 1073741825
  - first: {x: -7, y: -5, z: 0}
    second:
      serializedVersion: 2
      m_TileIndex: 53
      m_TileSpriteIndex: 52
      m_TileMatrixIndex: 0
      m_TileColorIndex: 56
      m_TileObjectToInstantiateIndex: 65535
      m_AllTileFlags: 1073741825
  - first: {x: -6, y: -5, z: 0}
    second:
      serializedVersion: 2
      m_TileIndex: 52
      m_TileSpriteIndex: 51
      m_TileMatrixIndex: 0
      m_TileColorIndex: 56
      m_TileObjectToInstantiateIndex: 65535
      m_AllTileFlags: 1073741825
  - first: {x: -5, y: -5, z: 0}
    second:
      serializedVersion: 2
      m_TileIndex: 51
      m_TileSpriteIndex: 50
      m_TileMatrixIndex: 0
      m_TileColorIndex: 56
      m_TileObjectToInstantiateIndex: 65535
      m_AllTileFlags: 1073741825
  - first: {x: -4, y: -5, z: 0}
    second:
      serializedVersion: 2
      m_TileIndex: 50
      m_TileSpriteIndex: 49
      m_TileMatrixIndex: 0
      m_TileColorIndex: 56
      m_TileObjectToInstantiateIndex: 65535
      m_AllTileFlags: 1073741825
  - first: {x: -6, y: -4, z: 0}
    second:
      serializedVersion: 2
      m_TileIndex: 54
      m_TileSpriteIndex: 53
      m_TileMatrixIndex: 0
      m_TileColorIndex: 56
      m_TileObjectToInstantiateIndex: 65535
      m_AllTileFlags: 1073741825
  m_AnimatedTiles: {}
  m_TileAssetArray:
  - m_RefCount: 0
    m_Data: {fileID: 0}
  - m_RefCount: 0
    m_Data: {fileID: 0}
  - m_RefCount: 0
    m_Data: {fileID: 0}
  - m_RefCount: 0
    m_Data: {fileID: 0}
  - m_RefCount: 0
    m_Data: {fileID: 0}
  - m_RefCount: 0
    m_Data: {fileID: 0}
  - m_RefCount: 0
    m_Data: {fileID: 0}
  - m_RefCount: 0
    m_Data: {fileID: 0}
  - m_RefCount: 0
    m_Data: {fileID: 0}
  - m_RefCount: 0
    m_Data: {fileID: 0}
  - m_RefCount: 0
    m_Data: {fileID: 0}
  - m_RefCount: 0
    m_Data: {fileID: 0}
  - m_RefCount: 0
    m_Data: {fileID: 0}
  - m_RefCount: 0
    m_Data: {fileID: 0}
  - m_RefCount: 0
    m_Data: {fileID: 0}
  - m_RefCount: 0
    m_Data: {fileID: 0}
  - m_RefCount: 0
    m_Data: {fileID: 0}
  - m_RefCount: 0
    m_Data: {fileID: 0}
  - m_RefCount: 0
    m_Data: {fileID: 0}
  - m_RefCount: 0
    m_Data: {fileID: 0}
  - m_RefCount: 1
    m_Data: {fileID: 11400000, guid: af95a2fa0c56d08439d4cc5dc9f63b04, type: 2}
  - m_RefCount: 1
    m_Data: {fileID: 11400000, guid: 2980021b91d5ba04c8b668c033252191, type: 2}
  - m_RefCount: 1
    m_Data: {fileID: 11400000, guid: bf907a3f653045d4db8bd95011454c39, type: 2}
  - m_RefCount: 1
    m_Data: {fileID: 11400000, guid: 4b3557b8e38df3c468d5c79763c2caf5, type: 2}
  - m_RefCount: 1
    m_Data: {fileID: 11400000, guid: 6b9a4581ae630174c8762685e668224c, type: 2}
  - m_RefCount: 1
    m_Data: {fileID: 11400000, guid: b6b1709344abdc243a2efdf267070978, type: 2}
  - m_RefCount: 1
    m_Data: {fileID: 11400000, guid: 0b1354cced3046e44bd4694489e84c5b, type: 2}
  - m_RefCount: 1
    m_Data: {fileID: 11400000, guid: aeae3b02ecb89e449a732e59a4fd5e2e, type: 2}
  - m_RefCount: 1
    m_Data: {fileID: 11400000, guid: e4346b04fce779a4b99ea2a48e95259e, type: 2}
  - m_RefCount: 1
    m_Data: {fileID: 11400000, guid: 2723bc7853da0794f9e54b9526d46ade, type: 2}
  - m_RefCount: 1
    m_Data: {fileID: 11400000, guid: 611495708cfdaf64ea7e3361af055ceb, type: 2}
  - m_RefCount: 1
    m_Data: {fileID: 11400000, guid: c1e97465577a5b3479ce7334477ef518, type: 2}
  - m_RefCount: 1
    m_Data: {fileID: 11400000, guid: d5b869cc980d19e4da91355cf70c9b05, type: 2}
  - m_RefCount: 1
    m_Data: {fileID: 11400000, guid: cdf439be7456bdb4ea27574ba0bc9f41, type: 2}
  - m_RefCount: 1
    m_Data: {fileID: 11400000, guid: 753299554a4288043aabca2a00dc5dec, type: 2}
  - m_RefCount: 1
    m_Data: {fileID: 11400000, guid: 35ee0bc3cbef330429b293c8aef62feb, type: 2}
  - m_RefCount: 1
    m_Data: {fileID: 11400000, guid: dafcc9f139efaeb4e80e9133be9c2eb0, type: 2}
  - m_RefCount: 1
    m_Data: {fileID: 11400000, guid: f7cf1526535bb65458d5ddc8ac1e3ddf, type: 2}
  - m_RefCount: 1
    m_Data: {fileID: 11400000, guid: 4deefd6358feda645bd8bdd434366d7f, type: 2}
  - m_RefCount: 1
    m_Data: {fileID: 11400000, guid: 1c86cb0f2a30b8d4397d10d1ce2013ee, type: 2}
  - m_RefCount: 1
    m_Data: {fileID: 11400000, guid: e2d46a2e5a9d3e441bb9cf0e66e37aca, type: 2}
  - m_RefCount: 1
    m_Data: {fileID: 11400000, guid: df11dc17f7057c140ab3a499d6957998, type: 2}
  - m_RefCount: 1
    m_Data: {fileID: 11400000, guid: 5975dbfd78eb5a24496b9a688b1c1f11, type: 2}
  - m_RefCount: 1
    m_Data: {fileID: 11400000, guid: 4be1889f08417214893ee696ee41a6b4, type: 2}
  - m_RefCount: 1
    m_Data: {fileID: 11400000, guid: 9099e07fce836cc40a2fbfb2bbb63eef, type: 2}
  - m_RefCount: 1
    m_Data: {fileID: 11400000, guid: 1d92c687d06563b4bbcc4fa8c38d76ae, type: 2}
  - m_RefCount: 1
    m_Data: {fileID: 11400000, guid: 2fb6a6a16cb8f6947be8331dc6cd2119, type: 2}
  - m_RefCount: 1
    m_Data: {fileID: 11400000, guid: 1a8ec26c5980f9a41b78d8f6492c8648, type: 2}
  - m_RefCount: 1
    m_Data: {fileID: 11400000, guid: 3d609da6ecd5a7f4fb60d2e593fbe737, type: 2}
  - m_RefCount: 1
    m_Data: {fileID: 11400000, guid: cce6995edbf389948ac1c80ece749aab, type: 2}
  - m_RefCount: 1
    m_Data: {fileID: 11400000, guid: de28fb9449dcf6e4c8a0fdce69e718d9, type: 2}
  - m_RefCount: 1
    m_Data: {fileID: 11400000, guid: f5f7695c65b0e3942a12522c3bbe5b17, type: 2}
  - m_RefCount: 1
    m_Data: {fileID: 11400000, guid: 334db70194210bf40a0b8007d6a5e4ab, type: 2}
  - m_RefCount: 1
    m_Data: {fileID: 11400000, guid: 79274be678e3ddb479c14ee0aff3b49f, type: 2}
  - m_RefCount: 2
    m_Data: {fileID: 11400000, guid: 7ad1df3366e33ff4c929a6eca38dc257, type: 2}
  - m_RefCount: 1
    m_Data: {fileID: 11400000, guid: 52d69ec4a8bd81243981bcfd3a25e568, type: 2}
  - m_RefCount: 1
    m_Data: {fileID: 11400000, guid: 5f13b2012c74f1e4dba7bde78b9221ce, type: 2}
  m_TileSpriteArray:
  - m_RefCount: 0
    m_Data: {fileID: 0}
  - m_RefCount: 0
    m_Data: {fileID: 0}
  - m_RefCount: 0
    m_Data: {fileID: 0}
  - m_RefCount: 0
    m_Data: {fileID: 0}
  - m_RefCount: 0
    m_Data: {fileID: 0}
  - m_RefCount: 0
    m_Data: {fileID: 0}
  - m_RefCount: 0
    m_Data: {fileID: 0}
  - m_RefCount: 0
    m_Data: {fileID: 0}
  - m_RefCount: 0
    m_Data: {fileID: 0}
  - m_RefCount: 0
    m_Data: {fileID: 0}
  - m_RefCount: 0
    m_Data: {fileID: 0}
  - m_RefCount: 0
    m_Data: {fileID: 0}
  - m_RefCount: 0
    m_Data: {fileID: 0}
  - m_RefCount: 0
    m_Data: {fileID: 0}
  - m_RefCount: 0
    m_Data: {fileID: 0}
  - m_RefCount: 0
    m_Data: {fileID: 0}
  - m_RefCount: 0
    m_Data: {fileID: 0}
  - m_RefCount: 0
    m_Data: {fileID: 0}
  - m_RefCount: 0
    m_Data: {fileID: 0}
  - m_RefCount: 1
    m_Data: {fileID: -8168196974275635559, guid: 82d4b3f70d688294cbbb355f9eb56239,
      type: 3}
  - m_RefCount: 1
    m_Data: {fileID: 2414439352039941337, guid: 82d4b3f70d688294cbbb355f9eb56239,
      type: 3}
  - m_RefCount: 1
    m_Data: {fileID: -8031718470033469498, guid: 82d4b3f70d688294cbbb355f9eb56239,
      type: 3}
  - m_RefCount: 1
    m_Data: {fileID: -5085093776127655491, guid: 82d4b3f70d688294cbbb355f9eb56239,
      type: 3}
  - m_RefCount: 1
    m_Data: {fileID: 2258730475850935684, guid: 82d4b3f70d688294cbbb355f9eb56239,
      type: 3}
  - m_RefCount: 1
    m_Data: {fileID: -3880808766873363213, guid: 82d4b3f70d688294cbbb355f9eb56239,
      type: 3}
  - m_RefCount: 1
    m_Data: {fileID: -3550248051413820045, guid: 82d4b3f70d688294cbbb355f9eb56239,
      type: 3}
  - m_RefCount: 1
    m_Data: {fileID: -6012170245488492019, guid: 82d4b3f70d688294cbbb355f9eb56239,
      type: 3}
  - m_RefCount: 1
    m_Data: {fileID: -5553780208152368706, guid: 82d4b3f70d688294cbbb355f9eb56239,
      type: 3}
  - m_RefCount: 1
    m_Data: {fileID: -3014025628648038599, guid: 82d4b3f70d688294cbbb355f9eb56239,
      type: 3}
  - m_RefCount: 1
    m_Data: {fileID: -1094752039631879993, guid: 82d4b3f70d688294cbbb355f9eb56239,
      type: 3}
  - m_RefCount: 1
    m_Data: {fileID: -1067702705897998808, guid: 82d4b3f70d688294cbbb355f9eb56239,
      type: 3}
  - m_RefCount: 1
    m_Data: {fileID: -1879018670090606128, guid: 82d4b3f70d688294cbbb355f9eb56239,
      type: 3}
  - m_RefCount: 1
    m_Data: {fileID: -2184383835280151151, guid: 82d4b3f70d688294cbbb355f9eb56239,
      type: 3}
  - m_RefCount: 1
    m_Data: {fileID: -4704620244659080548, guid: 82d4b3f70d688294cbbb355f9eb56239,
      type: 3}
  - m_RefCount: 1
    m_Data: {fileID: 5154982231878085370, guid: 82d4b3f70d688294cbbb355f9eb56239,
      type: 3}
  - m_RefCount: 1
    m_Data: {fileID: 4483089452083122155, guid: 82d4b3f70d688294cbbb355f9eb56239,
      type: 3}
  - m_RefCount: 1
    m_Data: {fileID: -8774117932961378427, guid: 82d4b3f70d688294cbbb355f9eb56239,
      type: 3}
  - m_RefCount: 1
    m_Data: {fileID: 8378120265431542249, guid: 82d4b3f70d688294cbbb355f9eb56239,
      type: 3}
  - m_RefCount: 1
    m_Data: {fileID: 1429227897536183396, guid: 82d4b3f70d688294cbbb355f9eb56239,
      type: 3}
  - m_RefCount: 1
    m_Data: {fileID: -7572795486120397854, guid: 82d4b3f70d688294cbbb355f9eb56239,
      type: 3}
  - m_RefCount: 1
    m_Data: {fileID: 672961919831742416, guid: 82d4b3f70d688294cbbb355f9eb56239, type: 3}
  - m_RefCount: 1
    m_Data: {fileID: 2715265810959043539, guid: 82d4b3f70d688294cbbb355f9eb56239,
      type: 3}
  - m_RefCount: 1
    m_Data: {fileID: -6510813393010106565, guid: 82d4b3f70d688294cbbb355f9eb56239,
      type: 3}
  - m_RefCount: 1
    m_Data: {fileID: -1016710973238883043, guid: 82d4b3f70d688294cbbb355f9eb56239,
      type: 3}
  - m_RefCount: 1
    m_Data: {fileID: -7867579309185137997, guid: 82d4b3f70d688294cbbb355f9eb56239,
      type: 3}
  - m_RefCount: 1
    m_Data: {fileID: 4573783929548400243, guid: 82d4b3f70d688294cbbb355f9eb56239,
      type: 3}
  - m_RefCount: 1
    m_Data: {fileID: 2470029628158749282, guid: 82d4b3f70d688294cbbb355f9eb56239,
      type: 3}
  - m_RefCount: 1
    m_Data: {fileID: -3781615551329353707, guid: 82d4b3f70d688294cbbb355f9eb56239,
      type: 3}
  - m_RefCount: 1
    m_Data: {fileID: 1929119249991788652, guid: 82d4b3f70d688294cbbb355f9eb56239,
      type: 3}
  - m_RefCount: 1
    m_Data: {fileID: -2082597718704312097, guid: 82d4b3f70d688294cbbb355f9eb56239,
      type: 3}
  - m_RefCount: 1
    m_Data: {fileID: -8381171447084680009, guid: 82d4b3f70d688294cbbb355f9eb56239,
      type: 3}
  - m_RefCount: 1
    m_Data: {fileID: -4630849987869317222, guid: 82d4b3f70d688294cbbb355f9eb56239,
      type: 3}
  - m_RefCount: 1
    m_Data: {fileID: -7331144264386654981, guid: 82d4b3f70d688294cbbb355f9eb56239,
      type: 3}
  - m_RefCount: 2
    m_Data: {fileID: 7476179373461886763, guid: 82d4b3f70d688294cbbb355f9eb56239,
      type: 3}
  - m_RefCount: 1
    m_Data: {fileID: 3628797084785644609, guid: 82d4b3f70d688294cbbb355f9eb56239,
      type: 3}
  - m_RefCount: 1
    m_Data: {fileID: 4994211954278937844, guid: 82d4b3f70d688294cbbb355f9eb56239,
      type: 3}
  m_TileMatrixArray:
  - m_RefCount: 38
    m_Data:
      e00: 1
      e01: 0
      e02: 0
      e03: 0
      e10: 0
      e11: 1
      e12: 0
      e13: 0
      e20: 0
      e21: 0
      e22: 1
      e23: 0
      e30: 0
      e31: 0
      e32: 0
      e33: 1
  m_TileColorArray:
  - m_RefCount: 0
    m_Data: {r: 0, g: 0, b: 0, a: 0}
  - m_RefCount: 0
    m_Data: {r: -0.0000000028584424, g: -0.0000000028584424, b: -0.0000000028584424,
      a: -0.0000000028584424}
  - m_RefCount: 0
    m_Data: {r: -0.0000000028583997, g: -0.0000000028583997, b: -0.0000000028583997,
      a: -0.0000000028583997}
  - m_RefCount: 0
    m_Data: {r: -0.0000000028593803, g: -0.0000000028593803, b: -0.0000000028593803,
      a: -0.0000000028593803}
  - m_RefCount: 0
    m_Data: {r: -0.0000000028587834, g: -0.0000000028587834, b: -0.0000000028587834,
      a: -0.0000000028587834}
  - m_RefCount: 0
    m_Data: {r: -0.000000002859231, g: -0.000000002859231, b: -0.000000002859231,
      a: -0.000000002859231}
  - m_RefCount: 0
    m_Data: {r: -0.0000000028593377, g: -0.0000000028593377, b: -0.0000000028593377,
      a: -0.0000000028593377}
  - m_RefCount: 0
    m_Data: {r: -0.0000000028585916, g: -0.0000000028585916, b: -0.0000000028585916,
      a: -0.0000000028585916}
  - m_RefCount: 0
    m_Data: {r: -0.0000000028590605, g: -0.0000000028590605, b: -0.0000000028590605,
      a: -0.0000000028590605}
  - m_RefCount: 0
    m_Data: {r: -0.000000002859423, g: -0.000000002859423, b: -0.000000002859423,
      a: -0.000000002859423}
  - m_RefCount: 0
    m_Data: {r: -0.0000000028585063, g: -0.0000000028585063, b: -0.0000000028585063,
      a: -0.0000000028585063}
  - m_RefCount: 0
    m_Data: {r: -0.0000000028591245, g: -0.0000000028591245, b: -0.0000000028591245,
      a: -0.0000000028591245}
  - m_RefCount: 0
    m_Data: {r: -0.0000000028591032, g: -0.0000000028591032, b: -0.0000000028591032,
      a: -0.0000000028591032}
  - m_RefCount: 0
    m_Data: {r: -0.000000002859018, g: -0.000000002859018, b: -0.000000002859018,
      a: -0.000000002859018}
  - m_RefCount: 0
    m_Data: {r: -0.0000000028588687, g: -0.0000000028588687, b: -0.0000000028588687,
      a: -0.0000000028588687}
  - m_RefCount: 0
    m_Data: {r: -0.0000000028590819, g: -0.0000000028590819, b: -0.0000000028590819,
      a: -0.0000000028590819}
  - m_RefCount: 0
    m_Data: {r: -0.0000000031793306, g: -0.0000000031793306, b: -0.0000000031793306,
      a: -0.0000000031793306}
  - m_RefCount: 0
    m_Data: {r: -0.0000000028588047, g: -0.0000000028588047, b: -0.0000000028588047,
      a: -0.0000000028588047}
  - m_RefCount: 0
    m_Data: {r: -0.0000000028585276, g: -0.0000000028585276, b: -0.0000000028585276,
      a: -0.0000000028585276}
  - m_RefCount: 0
    m_Data: {r: -0.0000000013893846, g: -0.0000000013893846, b: -0.0000000013893846,
      a: -0.0000000013893846}
  - m_RefCount: 0
    m_Data: {r: -0.0000000028583358, g: -0.0000000028583358, b: -0.0000000028583358,
      a: -0.0000000028583358}
  - m_RefCount: 0
    m_Data: {r: -0.0000000028582718, g: -0.0000000028582718, b: -0.0000000028582718,
      a: -0.0000000028582718}
  - m_RefCount: 0
    m_Data: {r: -0.000000003158327, g: -0.000000003158327, b: -0.000000003158327,
      a: -0.000000003158327}
  - m_RefCount: 0
    m_Data: {r: -0.0000000028591884, g: -0.0000000028591884, b: -0.0000000028591884,
      a: -0.0000000028591884}
  - m_RefCount: 0
    m_Data: {r: -0.0000000035468943, g: -0.0000000035468943, b: -0.0000000035468943,
      a: -0.0000000035468943}
  - m_RefCount: 0
    m_Data: {r: -0.0000000025750637, g: -0.0000000025750637, b: -0.0000000025750637,
      a: -0.0000000025750637}
  - m_RefCount: 0
    m_Data: {r: -0.000000002575085, g: -0.000000002575085, b: -0.000000002575085,
      a: -0.000000002575085}
  - m_RefCount: 0
    m_Data: {r: -0.0000000025752342, g: -0.0000000025752342, b: -0.0000000025752342,
      a: -0.0000000025752342}
  - m_RefCount: 0
    m_Data: {r: -0.0000000025752556, g: -0.0000000025752556, b: -0.0000000025752556,
      a: -0.0000000025752556}
  - m_RefCount: 0
    m_Data: {r: -0.0000000025752769, g: -0.0000000025752769, b: -0.0000000025752769,
      a: -0.0000000025752769}
  - m_RefCount: 0
    m_Data: {r: -0.0000000025754048, g: -0.0000000025754048, b: -0.0000000025754048,
      a: -0.0000000025754048}
  - m_RefCount: 0
    m_Data: {r: -0.000000002575426, g: -0.000000002575426, b: -0.000000002575426,
      a: -0.000000002575426}
  - m_RefCount: 0
    m_Data: {r: -0.0000000025754474, g: -0.0000000025754474, b: -0.0000000025754474,
      a: -0.0000000025754474}
  - m_RefCount: 0
    m_Data: {r: -0.0000000025755753, g: -0.0000000025755753, b: -0.0000000025755753,
      a: -0.0000000025755753}
  - m_RefCount: 0
    m_Data: {r: -0.0000000025755966, g: -0.0000000025755966, b: -0.0000000025755966,
      a: -0.0000000025755966}
  - m_RefCount: 0
    m_Data: {r: -0.000000002575618, g: -0.000000002575618, b: -0.000000002575618,
      a: -0.000000002575618}
  - m_RefCount: 0
    m_Data: {r: -0.0000000025756393, g: -0.0000000025756393, b: -0.0000000025756393,
      a: -0.0000000025756393}
  - m_RefCount: 0
    m_Data: {r: -0.0000000025575702, g: -0.0000000025575702, b: -0.0000000025575702,
      a: -0.0000000025575702}
  - m_RefCount: 0
    m_Data: {r: -0.0000000025575915, g: -0.0000000025575915, b: -0.0000000025575915,
      a: -0.0000000025575915}
  - m_RefCount: 0
    m_Data: {r: -0.0000000025576128, g: -0.0000000025576128, b: -0.0000000025576128,
      a: -0.0000000025576128}
  - m_RefCount: 0
    m_Data: {r: -0.000000002557634, g: -0.000000002557634, b: -0.000000002557634,
      a: -0.000000002557634}
  - m_RefCount: 0
    m_Data: {r: -0.0000000025576554, g: -0.0000000025576554, b: -0.0000000025576554,
      a: -0.0000000025576554}
  - m_RefCount: 0
    m_Data: {r: -0.0000000025576767, g: -0.0000000025576767, b: -0.0000000025576767,
      a: -0.0000000025576767}
  - m_RefCount: 0
    m_Data: {r: -0.0000000025577407, g: -0.0000000025577407, b: -0.0000000025577407,
      a: -0.0000000025577407}
  - m_RefCount: 0
    m_Data: {r: -0.000000002557762, g: -0.000000002557762, b: -0.000000002557762,
      a: -0.000000002557762}
  - m_RefCount: 0
    m_Data: {r: -0.0000000025577833, g: -0.0000000025577833, b: -0.0000000025577833,
      a: -0.0000000025577833}
  - m_RefCount: 0
    m_Data: {r: -0.0000000025578046, g: -0.0000000025578046, b: -0.0000000025578046,
      a: -0.0000000025578046}
  - m_RefCount: 0
    m_Data: {r: -0.000000002557826, g: -0.000000002557826, b: -0.000000002557826,
      a: -0.000000002557826}
  - m_RefCount: 0
    m_Data: {r: -0.0000000025578473, g: -0.0000000025578473, b: -0.0000000025578473,
      a: -0.0000000025578473}
  - m_RefCount: 0
    m_Data: {r: -0.0000000025579112, g: -0.0000000025579112, b: -0.0000000025579112,
      a: -0.0000000025579112}
  - m_RefCount: 0
    m_Data: {r: -0.0000000025579325, g: -0.0000000025579325, b: -0.0000000025579325,
      a: -0.0000000025579325}
  - m_RefCount: 0
    m_Data: {r: -0.0000000025579538, g: -0.0000000025579538, b: -0.0000000025579538,
      a: -0.0000000025579538}
  - m_RefCount: 0
    m_Data: {r: -0.0000000025579752, g: -0.0000000025579752, b: -0.0000000025579752,
      a: -0.0000000025579752}
  - m_RefCount: 0
    m_Data: {r: -0.0000000025580604, g: -0.0000000025580604, b: -0.0000000025580604,
      a: -0.0000000025580604}
  - m_RefCount: 0
    m_Data: {r: -0.0000000025863613, g: -0.0000000025863613, b: -0.0000000025863613,
      a: -0.0000000025863613}
  - m_RefCount: 0
    m_Data: {r: -0.0000000027556197, g: -0.0000000027556197, b: -0.0000000027556197,
      a: -0.0000000027556197}
  - m_RefCount: 38
    m_Data: {r: 1, g: 1, b: 1, a: 1}
  m_TileObjectToInstantiateArray: []
  m_AnimationFrameRate: 1
  m_Color: {r: 1, g: 1, b: 1, a: 1}
  m_Origin: {x: -13, y: -15, z: 0}
  m_Size: {x: 23, y: 18, z: 1}
  m_TileAnchor: {x: 0.5, y: 0.5, z: 0}
  m_TileOrientation: 0
  m_TileOrientationMatrix:
    e00: 1
    e01: 0
    e02: 0
    e03: 0
    e10: 0
    e11: 1
    e12: 0
    e13: 0
    e20: 0
    e21: 0
    e22: 1
    e23: 0
    e30: 0
    e31: 0
    e32: 0
    e33: 1
--- !u!483693784 &4292827087441726771
TilemapRenderer:
  m_ObjectHideFlags: 0
  m_CorrespondingSourceObject: {fileID: 0}
  m_PrefabInstance: {fileID: 0}
  m_PrefabAsset: {fileID: 0}
  m_GameObject: {fileID: 6202773559448346929}
  m_Enabled: 0
  m_CastShadows: 0
  m_ReceiveShadows: 0
  m_DynamicOccludee: 0
  m_MotionVectors: 1
  m_LightProbeUsage: 0
  m_ReflectionProbeUsage: 0
  m_RayTracingMode: 0
  m_RenderingLayerMask: 1
  m_RendererPriority: 0
  m_Materials:
  - {fileID: 10754, guid: 0000000000000000f000000000000000, type: 0}
  m_StaticBatchInfo:
    firstSubMesh: 0
    subMeshCount: 0
  m_StaticBatchRoot: {fileID: 0}
  m_ProbeAnchor: {fileID: 0}
  m_LightProbeVolumeOverride: {fileID: 0}
  m_ScaleInLightmap: 1
  m_ReceiveGI: 1
  m_PreserveUVs: 0
  m_IgnoreNormalsForChartDetection: 0
  m_ImportantGI: 0
  m_StitchLightmapSeams: 1
  m_SelectedEditorRenderState: 0
  m_MinimumChartSize: 4
  m_AutoUVMaxDistance: 0.5
  m_AutoUVMaxAngle: 89
  m_LightmapParameters: {fileID: 0}
  m_SortingLayerID: 0
  m_SortingLayer: 0
  m_SortingOrder: 0
  m_ChunkSize: {x: 32, y: 32, z: 32}
  m_ChunkCullingBounds: {x: 0, y: 0, z: 0}
  m_MaxChunkCount: 16
  m_MaxFrameAge: 16
  m_SortOrder: 0
  m_Mode: 0
  m_DetectChunkCullingBounds: 0
  m_MaskInteraction: 0
--- !u!114 &-4135093473235087060
MonoBehaviour:
  m_ObjectHideFlags: 0
  m_CorrespondingSourceObject: {fileID: 0}
  m_PrefabInstance: {fileID: 0}
  m_PrefabAsset: {fileID: 0}
  m_GameObject: {fileID: 0}
  m_Enabled: 1
  m_EditorHideFlags: 0
  m_Script: {fileID: 12395, guid: 0000000000000000e000000000000000, type: 0}
  m_Name: Palette Settings
  m_EditorClassIdentifier: 
  cellSizing: 0
